****************************lien figma de la maquette**************************
https://www.figma.com/file/Olb8K80sHH0zdg4dtvo2np/DOTOMI?node-id=0%3A1&t=i7mp6uvxRhwC5Auh-0

****************************Video DEMO / Base de donne ************************
La video demo net la base de donnee se retrouve dans le depot git
Dossier: dotomi_demo




****************************d-girls*******************************************************************************
Dotomi est une plateforme qui permet au jeunes de 12 à 24 ans de discuter en toute confidentialité et en toute sécurité de leurs 
problèmes liées a la santé sexuelle.
Sur la plateforme vous pouvez tchater, passer des appels et lire des contenues.
En tant que gényco ont peut ajouter de contenu et faire ce que l'utilisateur standard faire aussi.
En tant que paire on peut ajouter de contenu aussi.
L'administrateur gère tout le coté technique de la plateforme via son dashboard

**************************Le cas ou la base de donné importée marche***************************
Pair Educateur: 
Pseudo: Pierre03
password:admin01
*****************************************
Gynecologue:
Pseudo:Ruth01
password: admin01
****************************************
Administrateur:
Pseudo:Ange96
password: admin01
***************************************
On peut créer les utilisateur soit meme via la plateforme
****************************************
Les differents roles d'utilisateurs:
-admin
-user
-teach(pair eductaeur)
-gyneco(pour les experts en SSR)

********************************** Importation du projet ***********************
Créer une base de donné dans phpmyadmin "dotomi" (veuillez respecter la nommancrature:tout en miniscule)
1- git clone https://gitlab.com/Cdgk26/digitgirls-dotomi.git
2- composer update
3- importer notre base de donnee dotomi.sql
5- php artisan serve
Avec cette commande vous aurez dans la base de données l'admin, le gynécologue, le pair Educateur.
